4 Hyperparameter Tuning und Evaluation – Machine Learning verstehen statt nur anwenden
…
Bis hierhin haben wir die Modelle immer nur auf 4 von 5 Folds gerechnet. Nun wollen wir ein finales Modell mit den optimalen Werten für die Hyperparameter auf dem ganzen Trainingsdatensatz rechnen. tidymodels macht diesen Schritt sehr einfach:

# Finales Modell fitten
last_lm_fit <- fit_best(lm_res)

Schauen wir uns doch noch kurz die trainierten Parameter an:

# Parameter Finaler Fit
last_lm_fit %>%
  extract_fit_parsnip() |> 
  tidy() |> 
  print(n = 5)

# A tibble: 51 × 3
  term        estimate penalty
  <chr>          <dbl>   <dbl>
1 (Intercept)  1.99       0.01
2 V1           1.00       0.01
3 V2           0.00491    0.01
4 V3          -0.00578    0.01
5 V4           0          0.01
# ℹ 46 more rows
…
